<?xml version="1.0"?>
<robot name="palka" xmlns:xacro="http://www.ros.org/wiki/xacro">
    <xacro:property name="PI" value="3.1415926535897931"/>
 
    <xacro:property name="palka_l" value="$(arg dlina_palki)"/>
    <xacro:property name="palka_w" value="0.1"/>
    <xacro:property name="palka_h" value="0.1"/>
    <xacro:property name="palka_m" value="1"/>

    <xacro:include filename="$(find description_palka)/urdf/palka.gazebo" />
    <xacro:include filename="$(find description_palka)/urdf/materials.xacro" />
    <xacro:include filename="$(find description_palka)/urdf/macros.xacro" />

    <link name="footprint" />

    <joint name="base_joint" type="fixed">
      <origin xyz="$(arg xc) $(arg yc) 2.0" rpy="0 0 $(arg rotation_platform)"/>
      <parent link="footprint"/>
      <child link="palka"/>
    </joint>

    <link name='palka'>
      <collision> 
        <geometry> 
          <box size="${palka_l} ${palka_w} ${palka_h}"/> 
        </geometry> 
      </collision>
      <visual> 
        <geometry> 
          <box size="${palka_l} ${palka_w} ${palka_h}"/> 
        </geometry> 
      </visual>
      <inertial> 
        <mass value="${palka_m}"/> 
        <box_inertia m="${palka_m}" x="${palka_l}" y="${palka_w}" z="${palka_h}"/>
      </inertial>
    </link>
</robot>
